{
  "tools": [
    {
      "name": "AnoMark",
      "source": "https://github.com/ANSSI-FR/AnoMark",
      "description": "Statistical learning algorithm to create a model on the command lines of the Process Creation events on Windows, in order to detect anomalies in future events",
      "language": "Python",
      "price": "Free",
      "online": "False"
    },
    {
      "name": "DARKSURGEON",
      "source": "https://github.com/cryps1s/DARKSURGEON",
      "description": "Windows project to empower incident response, digital forensics, malware analysis, and network defense with HashiCorp Packer and Vagrant",
      "language": "PowerShell",
      "price": "Free",
      "online": "False"
    },
    {
      "name": "driftctl",
      "source": "https://github.com/snyk/driftctl",
      "description": "Measures infrastructure as code coverage, and tracks infrastructure drift",
      "language": "Go",
      "price": "Free",
      "online": "False"
    },
    {
      "name": "GraphQL Armor",
      "source": "https://github.com/Escape-Technologies/graphql-armor",
      "description": "GraphQL security layer for Apollo and Yoga / Envelop servers",
      "language": "TypeScript",
      "price": "Free",
      "online": "False"
    },
    {
      "name": "libiris",
      "source": "https://github.com/mtth-bfft/libiris",
      "description": "Cross-platform sandboxing library",
      "language": "Rust",
      "price": "Free",
      "online": "False"
    },
    {
      "name": "Pandora",
      "website": "https://pandora.circl.lu/",
      "source": "https://github.com/pandora-analysis/pandora",
      "description": "Analysis framework that discovers if a file is suspicious and conveniently show the results",
      "language": "Python",
      "price": "Free",
      "online":"True",
      "keywords": "antivirus, scan, antimalware, detection"
    },
    {
      "name": "Santa",
      "source": "https://github.com/google/santa",
      "description": "Binary authorization system for macOS",
      "language": "ObjC",
      "price": "Free",
      "online": "False"
    },
    {
      "name": "usbsas",
      "source": "https://github.com/cea-sec/usbsas",
      "description": "Tool and framework for securely reading untrusted USB mass storage devices",
      "language": "Rust",
      "price": "Free",
      "online": "False"
    }
  ]
}
